Programa de Formación Cientifica - Análisis Estadístico 2022 - Sesión 1c
…
Si el duplicado es erróneo, lo podemos eliminar con distinct y el argumento .keep_all = TRUE.

Se debde espeficiar si el duplicado es de fila o de alguna variable (p. ej., id).

datos <- datos %>% 
  distinct(id_raton, .keep_all = TRUE)

datos

# A tibble: 23 × 13
   id_jaula id_raton tratamiento protocolo peso_inicial peso_final peso_utero
      <dbl>    <dbl> <chr>       <chr>            <dbl>      <dbl>      <dbl>
 1        1        1 control     ovx               26         33.3      0.089
 2        1        2 control     ovx               24.5       30.5      0.063
 3        1        3 control     ovx               20.4       29.9      0.078
 4        2        4 control     hemiovx           26.6       32.2      0.134
 5        2        5 control     ovx               23.5       30.4      0.052
 6        2        6 maca        ovx               25         30.4      0.055
 7        2        7 maca        ovx               24.8       28.8      0.064
 8        3        8 maca        ovx               23.2       27.3      0.062
 9        3        9 maca        hemiovx           22.7       26.9      0.07 
10        3       10 maca        ovx               23.9       29.1      0.113
# … with 13 more rows, and 6 more variables: chol <dbl>, glucose <dbl>,
#   tag <dbl>, prot <dbl>, urea <dbl>, album <dbl>
…
